{
  "name": "",
  "css_prefix_text": "",
  "css_use_suffix": false,
  "hinting": true,
  "units_per_em": 1000,
  "ascent": 850,
  "glyphs": [
    {
      "uid": "4568bba1dba45522fc539c733c9b35e5",
      "css": "twitter",
      "code": 59392,
      "src": "typicons"
    }
  ]
}